{"name":"NASA - National Aeronautics and Space Administration","picture":{"data":{"is_silhouette":false,"url":"https:\/\/scontent.xx.fbcdn.net\/v\/t1.0-1\/c4.0.50.50\/p50x50\/946762_10151583609731772_1960080090_n.jpg?oh=742acd6a2a4e2f7721eac46dc26b7176&oe=57E70763"}},"posts":{"data":[{"name":"Timeline Photos","object_id":"10154071126386772","message":"A new elevation map created from New Horizons spacecraft data shows Pluto\u2019s \u201csunken heart\u201d. The vast expanse of the icy surface is on average 2 miles lower than the surrounding terrain. Take a look: http:\/\/go.nasa.gov\/1VGlOPQ","type":"photo","link":"https:\/\/www.facebook.com\/NASA\/photos\/a.67899501771.69169.54971236771\/10154071126386772\/?type=3","id":"54971236771_10154071126386772","created_time":"2016-05-01T21:38:02+0000","full_picture":"https:\/\/scontent.xx.fbcdn.net\/v\/t1.0-9\/s720x720\/13094306_10154071126386772_4129938146204286168_n.jpg?oh=a26bc18ca80888840510ce1f15401362&oe=57AF6148","picture":"https:\/\/scontent.xx.fbcdn.net\/v\/t1.0-0\/q91\/s130x130\/13094306_10154071126386772_4129938146204286168_n.jpg?oh=e9260b484064f31d02f51c17b151d93b&oe=579BB2C9","status_type":"added_photos","likes":{"data":[{"id":"207706689616407","name":"Carmen Henao"}],"paging":{"cursors":{"before":"MjA3NzA2Njg5NjE2NDA3","after":"MjA3NzA2Njg5NjE2NDA3"},"next":"https:\/\/graph.facebook.com\/v2.6\/54971236771_10154071126386772\/likes?access_token=416197335179578\u00257Cd735cc9abdd720d921f42c5696f12a76&summary=true&limit=1&after=MjA3NzA2Njg5NjE2NDA3"},"summary":{"total_count":12833,"can_like":false,"has_liked":false}},"comments":{"data":[{"like_count":39,"message":"After painting our new knock-down plaster finish on our living room ceiling this afternoon, I got on FB and started scrolling down. This photo popped-up and my first thought? Someone took a photo of our newly plastered living room ceiling. :D","created_time":"2016-05-01T21:55:40+0000","from":{"name":"Jenni Ritzler Johns","id":"10209433820151683"},"comments":{"data":[{"like_count":1,"message":"It did cross my mind Jenni, but then I am not viewing this as a scientist!","created_time":"2016-05-01T22:39:32+0000","from":{"name":"Ann Fletcher","id":"1652186388328902"},"id":"10154071126386772_10154071223496772"},{"like_count":1,"message":"Sorry Jenni, got to add who did your plastering, in my view you should sack him! lol","created_time":"2016-05-01T22:42:01+0000","from":{"name":"Ann Fletcher","id":"1652186388328902"},"id":"10154071126386772_10154071226106772"},{"like_count":1,"message":"Your hillarios.!","created_time":"2016-05-01T23:26:34+0000","from":{"name":"Bilal Khan","id":"123325111398881"},"id":"10154071126386772_10154071276786772"},{"like_count":1,"message":"same thing I thought lol","created_time":"2016-05-02T03:35:53+0000","from":{"name":"Walter Saunders","id":"1066566010087270"},"id":"10154071126386772_10154071627686772"},{"like_count":1,"message":"Nature Imitates Art.","created_time":"2016-05-02T04:25:11+0000","from":{"name":"Patrick O'Loughlin","id":"10206440880768605"},"id":"10154071126386772_10154071701536772"},{"like_count":1,"message":"Your lucky it looks like Pluto. It could have been Uranus.","created_time":"2016-05-02T08:50:55+0000","from":{"name":"Robert Jenno","id":"250189465332770"},"id":"10154071126386772_10154072093421772"},{"like_count":0,"message":"Hahah","created_time":"2016-05-02T10:24:33+0000","from":{"name":"Max Basumatary","id":"172960033099321"},"id":"10154071126386772_10154072196291772"},{"like_count":0,"message":"Lol degenerite writing you did on your own, so aim for another afterlife off this real planet lol","created_time":"2016-05-02T13:49:46+0000","from":{"name":"Neeraj K Pilly","id":"10104163555548109"},"id":"10154071126386772_10154072559891772"}],"paging":{"cursors":{"before":"WTI5dGJXVnVkRjlqZAFhKemIzSTZANVEF4TlRRd056RXlNak0wT1RZAM056STZANVFEyTWpFME1qTTNNZAz09","after":"WTI5dGJXVnVkRjlqZAFhKemIzSTZANVEF4TlRRd056STFOVGs0T1RFM056STZANVFEyTWpFNU5qazROZAz09"}},"summary":{"order":"chronological","total_count":10,"can_comment":false}},"id":"10154071126386772_10154071160346772"},{"like_count":9,"message":"If the surface is lower that the rest of the planet... wouldn't that seem evidence that the surface was 'scrapped off' by a glancing contact with another large body? (Charon comes to mind for some reason)  I wish NASA only knew.  \u2728","created_time":"2016-05-01T21:46:48+0000","from":{"name":"Charles Ryer","id":"10208962929532789"},"comments":{"data":[{"like_count":0,"message":"They don't reply on social media.","created_time":"2016-05-01T21:53:32+0000","from":{"name":"Michael Davis","id":"508853125983094"},"id":"10154071126386772_10154071154956772"},{"like_count":0,"message":"Michael, Thanks kind Sir.","created_time":"2016-05-01T21:56:04+0000","from":{"name":"Charles Ryer","id":"10208962929532789"},"id":"10154071126386772_10154071160846772"},{"like_count":1,"message":"Michael Davis, actually, they have before.","created_time":"2016-05-01T22:02:30+0000","from":{"name":"Orlando Mendoza","id":"1029683733735460"},"id":"10154071126386772_10154071167866772"},{"like_count":2,"message":"then there is hope in the world  :D","created_time":"2016-05-01T22:03:34+0000","from":{"name":"Charles Ryer","id":"10208962929532789"},"id":"10154071126386772_10154071171886772"},{"like_count":2,"message":"No that's likely not what caused this depression. even \"glancing\" impacts like you describe carry a tremendous amount of kinetic energy with them due to the size of the masses involved. Besides, there's never a \"near miss\" when it comes to colliding bodies, usually the tidal forces are significant enough to cause the smaller body to break up when coming to close to the planet. (called the Roche limit.)\n\ndepressions of this sort, I would guess, would be created either by an meteorite, or could be in this case the result of sub-glacial tectonic forces or maybe subsidence and liquid upwelling which retextured the surface.\n\nidk I'm just a astronomy student","created_time":"2016-05-01T22:30:13+0000","from":{"name":"Michael Mendoza","id":"889116331151308"},"id":"10154071126386772_10154071209931772"},{"like_count":1,"message":"Yes! :\/","created_time":"2016-05-01T22:30:55+0000","from":{"name":"Science Post","id":"847392078683690"},"id":"10154071126386772_10154071210671772"},{"like_count":0,"message":"Orlando Mendoza not on this NASA page. Others, like NASA Earth and NASA Europe but not here.","created_time":"2016-05-01T22:38:52+0000","from":{"name":"Michael Davis","id":"508853125983094"},"id":"10154071126386772_10154071222501772"},{"like_count":1,"message":"Charles Ryer u could be right ....explains an oblong orbit too ....","created_time":"2016-05-01T22:39:57+0000","from":{"name":"Randy Seaman","id":"1234513603259660"},"id":"10154071126386772_10154071224021772"},{"like_count":0,"message":"I didn't know about the orbit, thanks Randy!","created_time":"2016-05-01T22:40:48+0000","from":{"name":"Charles Ryer","id":"10208962929532789"},"id":"10154071126386772_10154071224876772"},{"like_count":0,"message":"All objects that hit planet s don't necessarily hit perpendicular... Some could jus scrape the surface .....there's no body on here that knows for sure","created_time":"2016-05-01T22:42:40+0000","from":{"name":"Randy Seaman","id":"1234513603259660"},"id":"10154071126386772_10154071226746772"}],"paging":{"cursors":{"before":"WTI5dGJXVnVkRjlqZAFhKemIzSTZANVEF4TlRRd056RXhOVFE1TlRZAM056STZANVFEyTWpFek9UWXhNZAz09","after":"WTI5dGJXVnVkRjlqZAFhKemIzSTZANVEF4TlRRd056RXlNalkzTkRZAM056STZANVFEyTWpFME1qVTJNQT09"},"next":"https:\/\/graph.facebook.com\/v2.6\/10154071126386772_10154071143756772\/comments?access_token=416197335179578\u00257Cd735cc9abdd720d921f42c5696f12a76&fields=like_count\u00252Cmessage\u00252Ccreated_time\u00252Cfrom&summary=true&limit=10&after=WTI5dGJXVnVkRjlqZAFhKemIzSTZANVEF4TlRRd056RXlNalkzTkRZAM056STZANVFEyTWpFME1qVTJNQT09"},"summary":{"order":"chronological","total_count":22,"can_comment":false}},"id":"10154071126386772_10154071143756772"},{"like_count":4,"message":"Is density and buoyancy relevant? I mean every less dense material is buoyant in every more dense material - could that be a factor here?\n\nI wonder if there's a connection between buoyancy, density, and gravity? Well the last two have a pretty well known connection, and I'm not too well informed on how buoyancy works, other than the heavier stuff goes down and the lighter stuff goes up, but in order to learn more about gravity, it might be possible to study density and buoyancy.\n\nI'd love to learn more about buoyancy too, along with noting that most of our 'stuff' is pretty low #'d on the periodic table...wouldn't it be neat if there was a class of 'lighter' materials with fractions or even negative numbers for their atomic weight?\n\nI could probably learn a bit more chemistry too, maybe I'll grab a book off amazon...","created_time":"2016-05-01T22:10:21+0000","from":{"name":"Sam Strelitz","id":"1459358991008642"},"comments":{"data":[{"like_count":0,"message":"Yeah :\\","created_time":"2016-05-01T22:31:30+0000","from":{"name":"Science Post","id":"847392078683690"},"id":"10154071126386772_10154071211486772"},{"like_count":1,"message":"Great, you got commented on by a bot troll lol","created_time":"2016-05-01T22:38:08+0000","from":{"name":"Dan Lund","id":"982196698499303"},"id":"10154071126386772_10154071221631772"},{"like_count":0,"message":"The atomic weight is a count of protons in its nucleus.  Most of our solar system contains the same materials from creation of the system.","created_time":"2016-05-01T22:43:06+0000","from":{"name":"Dan Lund","id":"982196698499303"},"id":"10154071126386772_10154071227376772"},{"like_count":0,"message":"I thought it might be neat to discuss buoyancy and its relevancy, as it might make an interesting and insightful discussion, along with spreading awareness of the idea.","created_time":"2016-05-02T04:39:44+0000","from":{"name":"Sam Strelitz","id":"1459358991008642"},"id":"10154071126386772_10154071721781772"},{"like_count":0,"message":"The relationship of buoyancy and gravity is well known.  Without gravity there is no buoyancy.  And there is a really good article that explains how the ice plains formed it was released in January.  Buoyancy has little to do with the formation of the plains but the floating bergs on the plains are a perfect example of it.","created_time":"2016-05-02T04:49:15+0000","from":{"name":"Ian Rogerson","id":"10103339190377819"},"id":"10154071126386772_10154071736986772"},{"like_count":0,"message":"I've been pondering if it might be possible to construct lighter weight and other atoms using quarks or other materials that compose the elements of atoms?","created_time":"2016-05-02T04:50:24+0000","from":{"name":"Sam Strelitz","id":"1459358991008642"},"id":"10154071126386772_10154071738831772"},{"like_count":0,"message":"It doesn't get much lighter than hydrogen.  One of proton, one electron.","created_time":"2016-05-02T13:03:44+0000","from":{"name":"Dan Lund","id":"982196698499303"},"id":"10154071126386772_10154072490766772"}],"paging":{"cursors":{"before":"WTI5dGJXVnVkRjlqZAFhKemIzSTZANVEF4TlRRd056RXlNVEUwT0RZAM056STZANVFEyTWpFME1UZAzVNQT09","after":"WTI5dGJXVnVkRjlqZAFhKemIzSTZANVEF4TlRRd056STBPVEEzTmpZAM056STZANVFEyTWpFNU5ESXlOQT09"}},"summary":{"order":"chronological","total_count":10,"can_comment":false}},"id":"10154071126386772_10154071182456772"},{"like_count":1,"message":"Maybe a deposit of a core material pooled there, like cool lava or a glacier, and was shed, sloughed, into space.","created_time":"2016-05-01T22:22:28+0000","from":{"name":"Lisa Acton Lindemann","id":"1228365310511550"},"comments":{"data":[],"summary":{"order":"chronological","total_count":0,"can_comment":false}},"id":"10154071126386772_10154071200576772"},{"like_count":4,"message":"Can't we drop a bomb there and blast it open so we can see what sort of minerals there are. Diamonds or gold or silver so on. Very curious.","created_time":"2016-05-02T02:17:22+0000","from":{"name":"Jason Faber","id":"10205665140297209"},"comments":{"data":[{"like_count":1,"message":"bombs cant explode in space like they do on earth even if we dropped hundreds i dont think it would have much of an impact on the planet,instead of researching the furthest planets we should research the closest ones, extract resources and bring them on earth to research them and further improve space technology,wait why do i even.. blah blah blah","created_time":"2016-05-02T02:53:04+0000","from":{"name":"Arhondis Simadopoulos","id":"1103583349663632"},"id":"10154071126386772_10154071574341772"},{"like_count":0,"message":"Yeah lol. There's gotta be a way. Now if we find it we solve the money problems. Let's think 19 trillion worth to be exact.","created_time":"2016-05-02T02:56:16+0000","from":{"name":"Jason Faber","id":"10205665140297209"},"id":"10154071126386772_10154071578121772"},{"like_count":0,"message":"Lol","created_time":"2016-05-02T05:30:36+0000","from":{"name":"Leslie Ann","id":"148457435557583"},"id":"10154071126386772_10154071789421772"}],"paging":{"cursors":{"before":"WTI5dGJXVnVkRjlqZAFhKemIzSTZANVEF4TlRRd056RTFOelF6TkRFM056STZANVFEyTWpFMU56VTROQT09","after":"WTI5dGJXVnVkRjlqZAFhKemIzSTZANVEF4TlRRd056RTNPRGswTWpFM056STZANVFEyTWpFMk56QXpOZAz09"}},"summary":{"order":"chronological","total_count":3,"can_comment":false}},"id":"10154071126386772_10154071495616772"},{"like_count":1,"message":"When they will be published images that were taken by the space probe new horrizontes as it passes through the orbit of Pluto","created_time":"2016-05-02T05:50:37+0000","from":{"name":"Antonio Rodas Ramirez","id":"10208261688792631"},"comments":{"data":[],"summary":{"order":"chronological","total_count":1,"can_comment":false}},"id":"10154071126386772_10154071815741772"},{"like_count":1,"message":"Just curious....does any of the planets Nasa have collected soil sample from showed any living organisms?","created_time":"2016-05-02T07:17:21+0000","from":{"name":"Janice Qhie","id":"10152835484543915"},"comments":{"data":[{"like_count":1,"message":"It would be a hot news in all newspapers and TV for a month. If it didn't happened - the answer is NO :)","created_time":"2016-05-02T09:03:20+0000","from":{"name":"Tomasz Zakrzewski","id":"1403630676328994"},"id":"10154071126386772_10154072108601772"},{"like_count":0,"message":"Thanks for the reply. I've watch some of their videos about mars but they never mentioned anything about what they've collected. Thanks \ud83d\ude0a","created_time":"2016-05-02T13:23:29+0000","from":{"name":"Janice Qhie","id":"10152835484543915"},"id":"10154071126386772_10154072519016772"}],"paging":{"cursors":{"before":"WTI5dGJXVnVkRjlqZAFhKemIzSTZANVEF4TlRRd056SXhNRGcyTURFM056STZANVFEyTWpFM09UZA3dNQT09","after":"WTI5dGJXVnVkRjlqZAFhKemIzSTZANVEF4TlRRd056STFNVGt3TVRZAM056STZANVFEyTWpFNU5UUXdPUT09"}},"summary":{"order":"chronological","total_count":3,"can_comment":false}},"id":"10154071126386772_10154071938886772"},{"like_count":0,"message":"Interesting, can you tell us all how hydrogen and oxygen got to be on pluto to form Ice when trees make oxygen? No trees on Pluto.","created_time":"2016-05-02T03:20:00+0000","from":{"name":"Noel Constable","id":"504023209783668"},"comments":{"data":[{"like_count":2,"message":"What?  Trees produce oxygen as a by product when they take in CO2, they don't make it.  Oxygen is a naturally occurring element.  There are tons of celestial bodies that contain water.","created_time":"2016-05-02T04:52:58+0000","from":{"name":"Ian Rogerson","id":"10103339190377819"},"id":"10154071126386772_10154071742946772"},{"like_count":0,"message":"No water on the moon, no water on mars, no trees either.","created_time":"2016-05-02T05:13:54+0000","from":{"name":"Noel Constable","id":"504023209783668"},"id":"10154071126386772_10154071771666772"},{"like_count":2,"message":"Noel Constable, there's no trees on Enceladus, but the little moon has lots of water. Water is simply the result of combining 2 hydrogen atoms and 1 oxygen atom. There's countless molecules with both elements, too. H2O2 is the first that comes to mind, which is hydrogen peroxide.","created_time":"2016-05-02T05:38:06+0000","from":{"name":"Mel Quin","id":"10153947922315362"},"id":"10154071126386772_10154071800686772"},{"like_count":0,"message":"My apologies I shouldn't have put genius stuff up here, thank you Ian Rogerson and Mel Quin for your tips. I'm fully aware of the composition of water. On oxygen being abundant I can only say to ask NASA why their astronauts wear their spacesuits and bubble helments whilst space walking at ISS and the moon. Why did the scramjet engine they have in their X space rockets fall out of the sky when it reached oxygen deprivation altitude. I'm going to unlike the Nasa site now thanks for the convo.","created_time":"2016-05-02T07:49:23+0000","from":{"name":"Noel Constable","id":"504023209783668"},"id":"10154071126386772_10154071986031772"},{"like_count":0,"message":"If water is present that doesn't mean oxygen is in the air.  In most places it is either in the form of ice or below the surface.","created_time":"2016-05-02T10:19:59+0000","from":{"name":"Ian Rogerson","id":"10103339190377819"},"id":"10154071126386772_10154072192171772"},{"like_count":0,"message":"Trees do not make the element oxygen. They split h2o into hydrogen and oxygen. Trees do not fuse hydrogen into oxygen like stars do. There is lots of water in the outer solar system. Much much more than on EARTH.","created_time":"2016-05-02T13:16:59+0000","from":{"name":"Matthew Pottinger","id":"976146909099288"},"id":"10154071126386772_10154072508416772"}],"paging":{"cursors":{"before":"WTI5dGJXVnVkRjlqZAFhKemIzSTZANVEF4TlRRd056RTNOREk1TkRZAM056STZANVFEyTWpFMk5EYzNPQT09","after":"WTI5dGJXVnVkRjlqZAFhKemIzSTZANVEF4TlRRd056STFNRGcwTVRZAM056STZANVFEyTWpFNU5UQXhPUT09"}},"summary":{"order":"chronological","total_count":6,"can_comment":false}},"id":"10154071126386772_10154071602351772"},{"like_count":1,"message":"So NASA is Pluto a planet or not? If not, why the research?","created_time":"2016-05-01T23:40:50+0000","from":{"name":"Tamtamlet Sconebah","id":"1555915591370871"},"comments":{"data":[{"like_count":1,"message":"New Horizons took 9 years to get there once launched and many more of planning and construction. It was only during that time that the definitions of planets and dwarf planets were set following the discovery of other similar objects like Ceres, makemake and Eris etc.","created_time":"2016-05-01T23:42:31+0000","from":{"name":"Nathan Adams","id":"939675896126324"},"id":"10154071126386772_10154071292471772"},{"like_count":3,"message":"Just because it isnt a planet doesnt make it not interesting to explore.","created_time":"2016-05-01T23:42:47+0000","from":{"name":"Nathan Adams","id":"939675896126324"},"id":"10154071126386772_10154071292631772"},{"like_count":1,"message":"NASA didn't downgrade Pluto nor create the new dwarf planet category.","created_time":"2016-05-02T01:36:54+0000","from":{"name":"Michael Davis","id":"508853125983094"},"id":"10154071126386772_10154071430736772"},{"like_count":0,"message":"its always been a planet","created_time":"2016-05-02T03:37:17+0000","from":{"name":"Walter Saunders","id":"1066566010087270"},"id":"10154071126386772_10154071630946772"},{"like_count":0,"message":"Nasa didn't downgrade Pluto and it a dwarf planet because it cannot clear its orbital path. Also, the moon is larger than Pluto. Elevating it to planet status also means that a number of asteroids also need to be elevated to planet status","created_time":"2016-05-02T07:13:32+0000","from":{"name":"Kevin Pinel","id":"10209409423897135"},"id":"10154071126386772_10154071935096772"}],"paging":{"cursors":{"before":"WTI5dGJXVnVkRjlqZAFhKemIzSTZANVEF4TlRRd056RXlPVEkwTnpFM056STZANVFEyTWpFME5qRTFNZAz09","after":"WTI5dGJXVnVkRjlqZAFhKemIzSTZANVEF4TlRRd056RTVNelV3T1RZAM056STZANVFEyTWpFM016SXhNZAz09"}},"summary":{"order":"chronological","total_count":5,"can_comment":false}},"id":"10154071126386772_10154071291366772"},{"like_count":13,"message":"its heart sunk when they said she was no longer a planet..","created_time":"2016-05-01T22:16:38+0000","from":{"name":"Tom Casey","id":"274064642936290"},"comments":{"data":[{"like_count":1,"message":"I agree Awesome comment thanks","created_time":"2016-05-01T22:31:00+0000","from":{"name":"Science Post","id":"847392078683690"},"id":"10154071126386772_10154071210746772"},{"like_count":1,"message":"You mean \"when it finally joined its brothers and sisters\"?","created_time":"2016-05-01T22:46:29+0000","from":{"name":"Jean-Dominic Lapointe Thibeault","id":"10155514567260352"},"id":"10154071126386772_10154071230801772"},{"like_count":0,"message":"Yeah.she cam to visit me.","created_time":"2016-05-01T23:21:35+0000","from":{"name":"Bilal Khan","id":"123325111398881"},"id":"10154071126386772_10154071270776772"},{"like_count":0,"message":"VERY FUNNY! They never should have broke her heart in the first place.","created_time":"2016-05-02T12:58:35+0000","from":{"name":"Cherie Newlen","id":"599163800258427"},"id":"10154071126386772_10154072478901772"}],"paging":{"cursors":{"before":"WTI5dGJXVnVkRjlqZAFhKemIzSTZANVEF4TlRRd056RXlNVEEzTkRZAM056STZANVFEyTWpFME1UZAzJNQT09","after":"WTI5dGJXVnVkRjlqZAFhKemIzSTZANVEF4TlRRd056STBOemc1TURFM056STZANVFEyTWpFNU16a3hOUT09"}},"summary":{"order":"chronological","total_count":4,"can_comment":false}},"id":"10154071126386772_10154071192326772"}],"paging":{"cursors":{"before":"MTY5","after":"MTYw"},"next":"https:\/\/graph.facebook.com\/v2.6\/54971236771_10154071126386772\/comments?access_token=416197335179578\u00257Cd735cc9abdd720d921f42c5696f12a76&fields=like_count\u00252Cmessage\u00252Ccreated_time\u00252Cfrom\u00252Ccomments.limit\u00252810\u002529.summary\u002528true\u002529\u00257Blike_count\u00252Cmessage\u00252Ccreated_time\u00252Cfrom\u00257D&summary=true&limit=10&after=MTYw"},"summary":{"order":"ranked","total_count":169,"can_comment":false}},"attachments":{"data":[{"description":"A new elevation map created from New Horizons spacecraft data shows Pluto\u2019s \u201csunken heart\u201d. The vast expanse of the icy surface is on average 2 miles lower than the surrounding terrain. Take a look: http:\/\/go.nasa.gov\/1VGlOPQ","media":{"image":{"height":720,"src":"https:\/\/scontent.xx.fbcdn.net\/v\/t1.0-9\/s720x720\/13094306_10154071126386772_4129938146204286168_n.jpg?oh=a26bc18ca80888840510ce1f15401362&oe=57AF6148","width":649}},"target":{"id":"10154071126386772","url":"https:\/\/www.facebook.com\/NASA\/photos\/a.67899501771.69169.54971236771\/10154071126386772\/?type=3"},"title":"Timeline Photos","type":"photo","url":"https:\/\/www.facebook.com\/NASA\/photos\/a.67899501771.69169.54971236771\/10154071126386772\/?type=3"}]}}],"paging":{"previous":"https:\/\/graph.facebook.com\/v2.6\/54971236771\/posts?limit=1&fields=comments.limit\u00252810\u002529.summary\u002528true\u002529\u00257Blike_count,message,created_time,from,comments.limit\u00252810\u002529.summary\u002528true\u002529\u00257Blike_count,message,created_time,from\u00257D\u00257D,name,object_id,description,message,type,link,caption,id,created_time,full_picture,source,picture,status_type,story,attachments,likes.limit\u0025281\u002529.summary\u002528true\u002529&since=1462138682&access_token=416197335179578|d735cc9abdd720d921f42c5696f12a76&__paging_token=enc_AdBKOgdNenfHUFWAoWyn7rV6u6nCe1HGRJFoRdwt42vB7ZA9JDSH0J5biGBgqfzWgb5Vz5AYx0JMwkj45MytKGy7N&__previous=1","next":"https:\/\/graph.facebook.com\/v2.6\/54971236771\/posts?limit=1&fields=comments.limit\u00252810\u002529.summary\u002528true\u002529\u00257Blike_count,message,created_time,from,comments.limit\u00252810\u002529.summary\u002528true\u002529\u00257Blike_count,message,created_time,from\u00257D\u00257D,name,object_id,description,message,type,link,caption,id,created_time,full_picture,source,picture,status_type,story,attachments,likes.limit\u0025281\u002529.summary\u002528true\u002529&access_token=416197335179578|d735cc9abdd720d921f42c5696f12a76&until=1462138682&__paging_token=enc_AdBKOgdNenfHUFWAoWyn7rV6u6nCe1HGRJFoRdwt42vB7ZA9JDSH0J5biGBgqfzWgb5Vz5AYx0JMwkj45MytKGy7N"}},"id":"54971236771"}